<?xml version="1.0" encoding="UTF-8"?>
<svg width="19px" height="24px" viewBox="0 0 19 24" version="1.1" xmlns="http://www.w3.org/2000/svg" xmlns:xlink="http://www.w3.org/1999/xlink">
    <!-- Generator: Sketch 63.1 (92452) - https://sketch.com -->
    <title>Resources_icon</title>
    <desc>Created with Sketch.</desc>
    <g id="Icons" stroke="none" stroke-width="1" fill="none" fill-rule="evenodd">
        <g id="Resources_icon" fill="white" fill-rule="nonzero">
            <path d="M18.7133906,18.328125 L16.9555781,24 L1.79442188,24 L0.036609375,18.328125 L18.7133906,18.328125 Z M10.078125,20.4375 L8.671875,20.4375 L8.671875,21.84375 L10.078125,21.84375 L10.078125,20.4375 Z M14.296875,14.109375 C15.8501719,14.109375 17.109375,15.3685313 17.109375,16.921875 L17.109375,16.921875 L1.640625,16.921875 C1.640625,15.3685313 2.89982813,14.109375 4.453125,14.109375 L4.453125,14.109375 Z M10.2539063,5.8854375 C10.9103438,6.62629688 11.8668281,7.078125 12.890625,7.078125 L12.890625,7.078125 L14.296875,7.078125 C15.0735469,7.078125 15.703125,7.70770313 15.703125,8.484375 C15.703125,9.26095313 15.0735469,9.890625 14.296875,9.890625 L14.296875,9.890625 L14.0849063,9.890625 C13.8333281,10.9957969 13.2986719,11.9641875 12.5712656,12.703125 L12.5712656,12.703125 L6.17878125,12.703125 C5.45132813,11.9641875 4.91671875,10.9957969 4.66514063,9.890625 L4.66514063,9.890625 L4.453125,9.890625 C3.67645313,9.890625 3.046875,9.26095313 3.046875,8.484375 C3.046875,7.70770313 3.67645313,7.078125 4.453125,7.078125 L4.453125,7.078125 L7.6171875,7.078125 C8.64098438,7.078125 9.59746875,6.62629688 10.2539063,5.8854375 Z M9.375,0 C12.0886406,0 14.296875,2.25510937 14.296875,4.96875 L14.296875,4.96875 L14.296875,5.671875 L12.890625,5.671875 C12.0137813,5.671875 11.2186406,5.11982812 10.9131563,4.29857812 L10.9131563,4.29857812 L10.2539531,2.52979688 L9.59475,4.29857812 C9.28917188,5.11982812 8.49403125,5.671875 7.6171875,5.671875 L7.6171875,5.671875 L4.453125,5.671875 L4.453125,4.96875 C4.453125,2.25510937 6.66135938,0 9.375,0 Z" id="Combined-Shape"></path>
        </g>
    </g>
</svg>